{
	"info": {
		"_postman_id": "781ae748-c932-4eb9-9064-aeca002b655a",
		"name": "Exercicio 01",
		"schema": "https://schema.getpostman.com/json/collection/v2.1.0/collection.json"
	},
	"item": [
		{
			"name": "Cliente_Get",
			"request": {
				"method": "GET",
				"header": [],
				"url": {
					"raw": ""
				}
			},
			"response": []
		},
		{
			"name": "Cliente _Post",
			"request": {
				"method": "GET",
				"header": [],
				"url": {
					"raw": ""
				}
			},
			"response": []
		},
		{
			"name": "Funcionario_Get",
			"request": {
				"method": "GET",
				"header": [],
				"url": {
					"raw": ""
				}
			},
			"response": []
		},
		{
			"name": "Funcionario_Put",
			"request": {
				"method": "PUT",
				"header": [
					{
						"key": "access",
						"value": "665522",
						"type": "default"
					}
				],
				"body": {
					"mode": "raw",
					"raw": "{\r\n    \"nome\": \"Patricia\",\r\n    \"sobrenome\": \"Lima\",\r\n    \"cidade\": \"São Paulo\"\r\n}",
					"options": {
						"raw": {
							"language": "json"
						}
					}
				},
				"url": {
					"raw": "http://localhost:8000/funcionarios/",
					"protocol": "http",
					"host": [
						"localhost"
					],
					"port": "8000",
					"path": [
						"funcionarios",
						""
					]
				}
			},
			"response": []
		},
		{
			"name": "Funcionario _Delete",
			"request": {
				"method": "DELETE",
				"header": [
					{
						"key": "access",
						"value": "123456",
						"type": "default"
					}
				],
				"body": {
					"mode": "raw",
					"raw": ""
				},
				"url": {
					"raw": "http://localhost:8000/funcionarios/:nome",
					"protocol": "http",
					"host": [
						"localhost"
					],
					"port": "8000",
					"path": [
						"funcionarios",
						":nome"
					],
					"variable": [
						{
							"key": "nome",
							"value": "Patricia"
						}
					]
				}
			},
			"response": []
		}
	]
}